; ModuleID = 'C:/Capstone2015/Vivado_Projects/HLS/interface/solution1/.autopilot/db/a.g.1.bc'
target datalayout = "e-p:64:64:64-i1:8:8-i8:8:8-i16:16:16-i32:32:32-i64:64:64-f32:32:32-f64:64:64-v64:64:64-v128:128:128-a0:0:64-s0:64:64-f80:128:128-n8:16:32:64-S128"
target triple = "x86_64-w64-mingw32"

@.str = private unnamed_addr constant [8 x i8] c"ap_fifo\00", align 1 ; [#uses=1 type=[8 x i8]*]
@.str1 = private unnamed_addr constant [1 x i8] zeroinitializer, align 1 ; [#uses=1 type=[1 x i8]*]
@str = internal constant [10 x i8] c"interface\00" ; [#uses=1 type=[10 x i8]*]

; [#uses=0]
define void @interface(i32* %x, i32* %y) nounwind uwtable {
  call void (...)* @_ssdm_op_SpecTopModule([10 x i8]* @str) nounwind
  call void @llvm.dbg.value(metadata !{i32* %x}, i64 0, metadata !18), !dbg !19 ; [debug line = 3:30] [debug variable = x]
  call void @llvm.dbg.value(metadata !{i32* %y}, i64 0, metadata !20), !dbg !21 ; [debug line = 3:47] [debug variable = y]
  call void (...)* @_ssdm_op_SpecInterface(i32* %y, i8* getelementptr inbounds ([8 x i8]* @.str, i64 0, i64 0), i32 0, i32 0, i32 0, i32 0, i8* getelementptr inbounds ([1 x i8]* @.str1, i64 0, i64 0), i8* getelementptr inbounds ([1 x i8]* @.str1, i64 0, i64 0), i8* getelementptr inbounds ([1 x i8]* @.str1, i64 0, i64 0)) nounwind, !dbg !22 ; [debug line = 5:1]
  call void (...)* @_ssdm_op_SpecInterface(i32* %x, i8* getelementptr inbounds ([8 x i8]* @.str, i64 0, i64 0), i32 0, i32 0, i32 0, i32 0, i8* getelementptr inbounds ([1 x i8]* @.str1, i64 0, i64 0), i8* getelementptr inbounds ([1 x i8]* @.str1, i64 0, i64 0), i8* getelementptr inbounds ([1 x i8]* @.str1, i64 0, i64 0)) nounwind, !dbg !24 ; [debug line = 6:1]
  %in_value = load volatile i32* %x, align 4, !dbg !25 ; [#uses=1 type=i32] [debug line = 9:2]
  call void @llvm.dbg.value(metadata !{i32 %in_value}, i64 0, metadata !26), !dbg !25 ; [debug line = 9:2] [debug variable = in_value]
  store volatile i32 %in_value, i32* %y, align 4, !dbg !27 ; [debug line = 10:2]
  ret void, !dbg !28                              ; [debug line = 11:1]
}

; [#uses=2]
declare void @_ssdm_op_SpecInterface(...) nounwind

; [#uses=3]
declare void @llvm.dbg.value(metadata, i64, metadata) nounwind readnone

; [#uses=1]
declare void @_ssdm_op_SpecTopModule(...)

!llvm.dbg.cu = !{!0}
!hls.encrypted.func = !{}

!0 = metadata !{i32 786449, i32 0, i32 4, metadata !"C:/Capstone2015/Vivado_Projects/HLS/interface/solution1/.autopilot/db/interface.pragma.2.cpp", metadata !"c:/Capstone2015/Vivado_Projects/HLS", metadata !"clang version 3.1 ", i1 true, i1 false, metadata !"", i32 0, metadata !1, metadata !1, metadata !3, metadata !14} ; [ DW_TAG_compile_unit ]
!1 = metadata !{metadata !2}
!2 = metadata !{i32 0}
!3 = metadata !{metadata !4}
!4 = metadata !{metadata !5}
!5 = metadata !{i32 786478, i32 0, metadata !6, metadata !"interface", metadata !"interface", metadata !"_Z9interfacePViS0_", metadata !6, i32 3, metadata !7, i1 false, i1 true, i32 0, i32 0, null, i32 256, i1 false, void (i32*, i32*)* @interface, null, null, metadata !12, i32 4} ; [ DW_TAG_subprogram ]
!6 = metadata !{i32 786473, metadata !"c/interface.cpp", metadata !"c:/Capstone2015/Vivado_Projects/HLS", null} ; [ DW_TAG_file_type ]
!7 = metadata !{i32 786453, i32 0, metadata !"", i32 0, i32 0, i64 0, i64 0, i64 0, i32 0, null, metadata !8, i32 0, i32 0} ; [ DW_TAG_subroutine_type ]
!8 = metadata !{null, metadata !9, metadata !9}
!9 = metadata !{i32 786447, null, metadata !"", null, i32 0, i64 64, i64 64, i64 0, i32 0, metadata !10} ; [ DW_TAG_pointer_type ]
!10 = metadata !{i32 786485, null, metadata !"", null, i32 0, i64 0, i64 0, i64 0, i32 0, metadata !11} ; [ DW_TAG_volatile_type ]
!11 = metadata !{i32 786468, null, metadata !"int", null, i32 0, i64 32, i64 32, i64 0, i32 0, i32 5} ; [ DW_TAG_base_type ]
!12 = metadata !{metadata !13}
!13 = metadata !{i32 786468}                      ; [ DW_TAG_base_type ]
!14 = metadata !{metadata !15}
!15 = metadata !{metadata !16}
!16 = metadata !{i32 786484, i32 0, null, metadata !"_sys_nerr", metadata !"_sys_nerr", metadata !"", metadata !17, i32 157, metadata !11, i32 0, i32 1, null} ; [ DW_TAG_variable ]
!17 = metadata !{i32 786473, metadata !"C:/Xilinx/Vivado_HLS/2015.1/win64/tools/clang/bin/../lib/clang/3.1/../../../x86_64-w64-mingw32/include\5Cstdlib.h", metadata !"c:/Capstone2015/Vivado_Projects/HLS", null} ; [ DW_TAG_file_type ]
!18 = metadata !{i32 786689, metadata !5, metadata !"x", metadata !6, i32 16777219, metadata !9, i32 0, i32 0} ; [ DW_TAG_arg_variable ]
!19 = metadata !{i32 3, i32 30, metadata !5, null}
!20 = metadata !{i32 786689, metadata !5, metadata !"y", metadata !6, i32 33554435, metadata !9, i32 0, i32 0} ; [ DW_TAG_arg_variable ]
!21 = metadata !{i32 3, i32 47, metadata !5, null}
!22 = metadata !{i32 5, i32 1, metadata !23, null}
!23 = metadata !{i32 786443, metadata !5, i32 4, i32 1, metadata !6, i32 0} ; [ DW_TAG_lexical_block ]
!24 = metadata !{i32 6, i32 1, metadata !23, null}
!25 = metadata !{i32 9, i32 2, metadata !23, null}
!26 = metadata !{i32 786688, metadata !23, metadata !"in_value", metadata !6, i32 7, metadata !11, i32 0, i32 0} ; [ DW_TAG_auto_variable ]
!27 = metadata !{i32 10, i32 2, metadata !23, null}
!28 = metadata !{i32 11, i32 1, metadata !23, null}
