C:\training\dsp_trd\labs\sysgen_flow\ML605\netlist\modulate_cw.ngc 1300265133
C:\training\dsp_trd\labs\sysgen_flow\ML605\netlist/xlpersistentdff.ngc 1300263965
C:\training\dsp_trd\labs\sysgen_flow\ML605\netlist/dds_cmplr_v4_0_6a04b82566c6a378.ngc 1300261989
C:\training\dsp_trd\labs\sysgen_flow\ML605\netlist/xbp_dsp48_mcr_v2_1_4464337bc93fbbc9.ngc 1300262027
OK
